^c:\Users\7PC\Documents\_bitbucket\clone_SuperMarioBroth\clone_SuperMarioBroth\proj.win32\clone_SuperMarioBroth.vcxproj
C:\Users\7PC\Documents\_bitbucket\clone_SuperMarioBroth\clone_SuperMarioBroth\proj.win32\Debug.win32\clone_SuperMarioBroth.lib
C:\Users\7PC\Documents\_bitbucket\clone_SuperMarioBroth\clone_SuperMarioBroth\proj.win32\Debug.win32\clone_SuperMarioBroth.exp
^c:\Users\7PC\Documents\_bitbucket\clone_SuperMarioBroth\clone_SuperMarioBroth\proj.win32\clone_SuperMarioBroth.vcxproj
C:\Users\7PC\Documents\_bitbucket\clone_SuperMarioBroth\clone_SuperMarioBroth\proj.win32\Debug.win32\clone_SuperMarioBroth.lib
C:\Users\7PC\Documents\_bitbucket\clone_SuperMarioBroth\clone_SuperMarioBroth\proj.win32\Debug.win32\clone_SuperMarioBroth.exp
^c:\Users\7PC\Documents\_bitbucket\clone_SuperMarioBroth\clone_SuperMarioBroth\proj.win32\clone_SuperMarioBroth.vcxproj
C:\Users\7PC\Documents\_bitbucket\clone_SuperMarioBroth\clone_SuperMarioBroth\proj.win32\Debug.win32\clone_SuperMarioBroth.lib
C:\Users\7PC\Documents\_bitbucket\clone_SuperMarioBroth\clone_SuperMarioBroth\proj.win32\Debug.win32\clone_SuperMarioBroth.exp
^c:\Users\7PC\Documents\_bitbucket\clone_SuperMarioBroth\clone_SuperMarioBroth\proj.win32\clone_SuperMarioBroth.vcxproj
C:\Users\7PC\Documents\_bitbucket\clone_SuperMarioBroth\clone_SuperMarioBroth\proj.win32\Debug.win32\clone_SuperMarioBroth.lib
C:\Users\7PC\Documents\_bitbucket\clone_SuperMarioBroth\clone_SuperMarioBroth\proj.win32\Debug.win32\clone_SuperMarioBroth.exp
^c:\Users\7PC\Documents\_bitbucket\clone_SuperMarioBroth\clone_SuperMarioBroth\proj.win32\clone_SuperMarioBroth.vcxproj
C:\Users\7PC\Documents\_bitbucket\clone_SuperMarioBroth\clone_SuperMarioBroth\proj.win32\Debug.win32\clone_SuperMarioBroth.lib
C:\Users\7PC\Documents\_bitbucket\clone_SuperMarioBroth\clone_SuperMarioBroth\proj.win32\Debug.win32\clone_SuperMarioBroth.exp
^c:\Users\7PC\Documents\_bitbucket\clone_SuperMarioBroth\clone_SuperMarioBroth\proj.win32\clone_SuperMarioBroth.vcxproj
C:\Users\7PC\Documents\_bitbucket\clone_SuperMarioBroth\clone_SuperMarioBroth\proj.win32\Debug.win32\clone_SuperMarioBroth.lib
C:\Users\7PC\Documents\_bitbucket\clone_SuperMarioBroth\clone_SuperMarioBroth\proj.win32\Debug.win32\clone_SuperMarioBroth.exp
^c:\Users\7PC\Documents\_bitbucket\clone_SuperMarioBroth\clone_SuperMarioBroth\proj.win32\clone_SuperMarioBroth.vcxproj
C:\Users\7PC\Documents\_bitbucket\clone_SuperMarioBroth\clone_SuperMarioBroth\proj.win32\Debug.win32\clone_SuperMarioBroth.lib
C:\Users\7PC\Documents\_bitbucket\clone_SuperMarioBroth\clone_SuperMarioBroth\proj.win32\Debug.win32\clone_SuperMarioBroth.exp
^c:\Users\7PC\Documents\_bitbucket\clone_SuperMarioBroth\clone_SuperMarioBroth\proj.win32\clone_SuperMarioBroth.vcxproj
C:\Users\7PC\Documents\_bitbucket\clone_SuperMarioBroth\clone_SuperMarioBroth\proj.win32\Debug.win32\clone_SuperMarioBroth.lib
C:\Users\7PC\Documents\_bitbucket\clone_SuperMarioBroth\clone_SuperMarioBroth\proj.win32\Debug.win32\clone_SuperMarioBroth.exp
^c:\Users\7PC\Documents\_bitbucket\clone_SuperMarioBroth\clone_SuperMarioBroth\proj.win32\clone_SuperMarioBroth.vcxproj
C:\Users\7PC\Documents\_bitbucket\clone_SuperMarioBroth\clone_SuperMarioBroth\proj.win32\Debug.win32\clone_SuperMarioBroth.lib
C:\Users\7PC\Documents\_bitbucket\clone_SuperMarioBroth\clone_SuperMarioBroth\proj.win32\Debug.win32\clone_SuperMarioBroth.exp
^C:\Users\7PC\Documents\_bitbucket\clone_SuperMarioBroth\clone_SuperMarioBroth\proj.win32\clone_SuperMarioBroth.vcxproj
C:\Users\7PC\Documents\_bitbucket\clone_SuperMarioBroth\clone_SuperMarioBroth\proj.win32\Debug.win32\clone_SuperMarioBroth.lib
C:\Users\7PC\Documents\_bitbucket\clone_SuperMarioBroth\clone_SuperMarioBroth\proj.win32\Debug.win32\clone_SuperMarioBroth.exp
^C:\Users\7PC\Documents\_bitbucket\clone_SuperMarioBroth\clone_SuperMarioBroth\proj.win32\clone_SuperMarioBroth.vcxproj
C:\Users\7PC\Documents\_bitbucket\clone_SuperMarioBroth\clone_SuperMarioBroth\proj.win32\Debug.win32\clone_SuperMarioBroth.lib
C:\Users\7PC\Documents\_bitbucket\clone_SuperMarioBroth\clone_SuperMarioBroth\proj.win32\Debug.win32\clone_SuperMarioBroth.exp
^C:\Users\7PC\Documents\_bitbucket\clone_SuperMarioBroth\clone_SuperMarioBroth\proj.win32\clone_SuperMarioBroth.vcxproj
C:\Users\7PC\Documents\_bitbucket\clone_SuperMarioBroth\clone_SuperMarioBroth\proj.win32\Debug.win32\clone_SuperMarioBroth.lib
C:\Users\7PC\Documents\_bitbucket\clone_SuperMarioBroth\clone_SuperMarioBroth\proj.win32\Debug.win32\clone_SuperMarioBroth.exp
^C:\Users\7PC\Documents\_bitbucket\clone_SuperMarioBroth\clone_SuperMarioBroth\proj.win32\clone_SuperMarioBroth.vcxproj
C:\Users\7PC\Documents\_bitbucket\clone_SuperMarioBroth\clone_SuperMarioBroth\proj.win32\Debug.win32\clone_SuperMarioBroth.lib
C:\Users\7PC\Documents\_bitbucket\clone_SuperMarioBroth\clone_SuperMarioBroth\proj.win32\Debug.win32\clone_SuperMarioBroth.exp
^C:\Users\7PC\Documents\_bitbucket\clone_SuperMarioBroth\clone_SuperMarioBroth\proj.win32\clone_SuperMarioBroth.vcxproj
C:\Users\7PC\Documents\_bitbucket\clone_SuperMarioBroth\clone_SuperMarioBroth\proj.win32\Debug.win32\clone_SuperMarioBroth.lib
C:\Users\7PC\Documents\_bitbucket\clone_SuperMarioBroth\clone_SuperMarioBroth\proj.win32\Debug.win32\clone_SuperMarioBroth.exp
^C:\Users\7PC\Documents\_bitbucket\clone_SuperMarioBroth\clone_SuperMarioBroth\proj.win32\clone_SuperMarioBroth.vcxproj
C:\Users\7PC\Documents\_bitbucket\clone_SuperMarioBroth\clone_SuperMarioBroth\proj.win32\Debug.win32\clone_SuperMarioBroth.lib
C:\Users\7PC\Documents\_bitbucket\clone_SuperMarioBroth\clone_SuperMarioBroth\proj.win32\Debug.win32\clone_SuperMarioBroth.exp
^C:\Users\7PC\Documents\_bitbucket\clone_SuperMarioBroth\clone_SuperMarioBroth\proj.win32\clone_SuperMarioBroth.vcxproj
C:\Users\7PC\Documents\_bitbucket\clone_SuperMarioBroth\clone_SuperMarioBroth\proj.win32\Debug.win32\clone_SuperMarioBroth.lib
C:\Users\7PC\Documents\_bitbucket\clone_SuperMarioBroth\clone_SuperMarioBroth\proj.win32\Debug.win32\clone_SuperMarioBroth.exp
^C:\Users\7PC\Documents\_bitbucket\clone_SuperMarioBroth\clone_SuperMarioBroth\proj.win32\clone_SuperMarioBroth.vcxproj
C:\Users\7PC\Documents\_bitbucket\clone_SuperMarioBroth\clone_SuperMarioBroth\proj.win32\Debug.win32\clone_SuperMarioBroth.lib
C:\Users\7PC\Documents\_bitbucket\clone_SuperMarioBroth\clone_SuperMarioBroth\proj.win32\Debug.win32\clone_SuperMarioBroth.exp
^C:\Users\7PC\Documents\_bitbucket\clone_SuperMarioBroth\clone_SuperMarioBroth\proj.win32\clone_SuperMarioBroth.vcxproj
C:\Users\7PC\Documents\_bitbucket\clone_SuperMarioBroth\clone_SuperMarioBroth\proj.win32\Debug.win32\clone_SuperMarioBroth.lib
C:\Users\7PC\Documents\_bitbucket\clone_SuperMarioBroth\clone_SuperMarioBroth\proj.win32\Debug.win32\clone_SuperMarioBroth.exp
^C:\Users\7PC\Documents\_bitbucket\clone_SuperMarioBroth\clone_SuperMarioBroth\proj.win32\clone_SuperMarioBroth.vcxproj
C:\Users\7PC\Documents\_bitbucket\clone_SuperMarioBroth\clone_SuperMarioBroth\proj.win32\Debug.win32\clone_SuperMarioBroth.lib
C:\Users\7PC\Documents\_bitbucket\clone_SuperMarioBroth\clone_SuperMarioBroth\proj.win32\Debug.win32\clone_SuperMarioBroth.exp
^C:\Users\7PC\Documents\_bitbucket\clone_SuperMarioBroth\clone_SuperMarioBroth\proj.win32\clone_SuperMarioBroth.vcxproj
C:\Users\7PC\Documents\_bitbucket\clone_SuperMarioBroth\clone_SuperMarioBroth\proj.win32\Debug.win32\clone_SuperMarioBroth.lib
C:\Users\7PC\Documents\_bitbucket\clone_SuperMarioBroth\clone_SuperMarioBroth\proj.win32\Debug.win32\clone_SuperMarioBroth.exp
^C:\Users\7PC\Documents\_bitbucket\clone_SuperMarioBroth\clone_SuperMarioBroth\proj.win32\clone_SuperMarioBroth.vcxproj
C:\Users\7PC\Documents\_bitbucket\clone_SuperMarioBroth\clone_SuperMarioBroth\proj.win32\Debug.win32\clone_SuperMarioBroth.lib
C:\Users\7PC\Documents\_bitbucket\clone_SuperMarioBroth\clone_SuperMarioBroth\proj.win32\Debug.win32\clone_SuperMarioBroth.exp
^C:\Users\7PC\Documents\_bitbucket\clone_SuperMarioBroth\clone_SuperMarioBroth\proj.win32\clone_SuperMarioBroth.vcxproj
C:\Users\7PC\Documents\_bitbucket\clone_SuperMarioBroth\clone_SuperMarioBroth\proj.win32\Debug.win32\clone_SuperMarioBroth.lib
C:\Users\7PC\Documents\_bitbucket\clone_SuperMarioBroth\clone_SuperMarioBroth\proj.win32\Debug.win32\clone_SuperMarioBroth.exp
^C:\Users\7PC\Documents\_bitbucket\clone_SuperMarioBroth\clone_SuperMarioBroth\proj.win32\clone_SuperMarioBroth.vcxproj
C:\Users\7PC\Documents\_bitbucket\clone_SuperMarioBroth\clone_SuperMarioBroth\proj.win32\Debug.win32\clone_SuperMarioBroth.lib
C:\Users\7PC\Documents\_bitbucket\clone_SuperMarioBroth\clone_SuperMarioBroth\proj.win32\Debug.win32\clone_SuperMarioBroth.exp
^C:\Users\7PC\Documents\_bitbucket\clone_SuperMarioBroth\clone_SuperMarioBroth\proj.win32\clone_SuperMarioBroth.vcxproj
C:\Users\7PC\Documents\_bitbucket\clone_SuperMarioBroth\clone_SuperMarioBroth\proj.win32\Debug.win32\clone_SuperMarioBroth.lib
C:\Users\7PC\Documents\_bitbucket\clone_SuperMarioBroth\clone_SuperMarioBroth\proj.win32\Debug.win32\clone_SuperMarioBroth.exp
^C:\Users\7PC\Documents\_bitbucket\clone_SuperMarioBroth\clone_SuperMarioBroth\proj.win32\clone_SuperMarioBroth.vcxproj
C:\Users\7PC\Documents\_bitbucket\clone_SuperMarioBroth\clone_SuperMarioBroth\proj.win32\Debug.win32\clone_SuperMarioBroth.lib
C:\Users\7PC\Documents\_bitbucket\clone_SuperMarioBroth\clone_SuperMarioBroth\proj.win32\Debug.win32\clone_SuperMarioBroth.exp
^C:\Users\7PC\Documents\_bitbucket\clone_SuperMarioBroth\clone_SuperMarioBroth\proj.win32\clone_SuperMarioBroth.vcxproj
C:\Users\7PC\Documents\_bitbucket\clone_SuperMarioBroth\clone_SuperMarioBroth\proj.win32\Debug.win32\clone_SuperMarioBroth.lib
C:\Users\7PC\Documents\_bitbucket\clone_SuperMarioBroth\clone_SuperMarioBroth\proj.win32\Debug.win32\clone_SuperMarioBroth.exp
^C:\Users\7PC\Documents\_bitbucket\clone_SuperMarioBroth\clone_SuperMarioBroth\proj.win32\clone_SuperMarioBroth.vcxproj
C:\Users\7PC\Documents\_bitbucket\clone_SuperMarioBroth\clone_SuperMarioBroth\proj.win32\Debug.win32\clone_SuperMarioBroth.lib
C:\Users\7PC\Documents\_bitbucket\clone_SuperMarioBroth\clone_SuperMarioBroth\proj.win32\Debug.win32\clone_SuperMarioBroth.exp
^C:\Users\7PC\Documents\_bitbucket\clone_SuperMarioBroth\clone_SuperMarioBroth\proj.win32\clone_SuperMarioBroth.vcxproj
C:\Users\7PC\Documents\_bitbucket\clone_SuperMarioBroth\clone_SuperMarioBroth\proj.win32\Debug.win32\clone_SuperMarioBroth.lib
C:\Users\7PC\Documents\_bitbucket\clone_SuperMarioBroth\clone_SuperMarioBroth\proj.win32\Debug.win32\clone_SuperMarioBroth.exp
^C:\Users\7PC\Documents\_bitbucket\clone_SuperMarioBroth\clone_SuperMarioBroth\proj.win32\clone_SuperMarioBroth.vcxproj
C:\Users\7PC\Documents\_bitbucket\clone_SuperMarioBroth\clone_SuperMarioBroth\proj.win32\Debug.win32\clone_SuperMarioBroth.lib
C:\Users\7PC\Documents\_bitbucket\clone_SuperMarioBroth\clone_SuperMarioBroth\proj.win32\Debug.win32\clone_SuperMarioBroth.exp
^C:\Users\7PC\Documents\_bitbucket\clone_SuperMarioBroth\clone_SuperMarioBroth\proj.win32\clone_SuperMarioBroth.vcxproj
C:\Users\7PC\Documents\_bitbucket\clone_SuperMarioBroth\clone_SuperMarioBroth\proj.win32\Debug.win32\clone_SuperMarioBroth.lib
C:\Users\7PC\Documents\_bitbucket\clone_SuperMarioBroth\clone_SuperMarioBroth\proj.win32\Debug.win32\clone_SuperMarioBroth.exp
^C:\Users\7PC\Documents\_bitbucket\clone_SuperMarioBroth\clone_SuperMarioBroth\proj.win32\clone_SuperMarioBroth.vcxproj
C:\Users\7PC\Documents\_bitbucket\clone_SuperMarioBroth\clone_SuperMarioBroth\proj.win32\Debug.win32\clone_SuperMarioBroth.lib
C:\Users\7PC\Documents\_bitbucket\clone_SuperMarioBroth\clone_SuperMarioBroth\proj.win32\Debug.win32\clone_SuperMarioBroth.exp
^C:\Users\7PC\Documents\_bitbucket\clone_SuperMarioBroth\clone_SuperMarioBroth\proj.win32\clone_SuperMarioBroth.vcxproj
C:\Users\7PC\Documents\_bitbucket\clone_SuperMarioBroth\clone_SuperMarioBroth\proj.win32\Debug.win32\clone_SuperMarioBroth.lib
C:\Users\7PC\Documents\_bitbucket\clone_SuperMarioBroth\clone_SuperMarioBroth\proj.win32\Debug.win32\clone_SuperMarioBroth.exp
^C:\Users\7PC\Documents\_bitbucket\clone_SuperMarioBroth\clone_SuperMarioBroth\proj.win32\clone_SuperMarioBroth.vcxproj
C:\Users\7PC\Documents\_bitbucket\clone_SuperMarioBroth\clone_SuperMarioBroth\proj.win32\Debug.win32\clone_SuperMarioBroth.lib
C:\Users\7PC\Documents\_bitbucket\clone_SuperMarioBroth\clone_SuperMarioBroth\proj.win32\Debug.win32\clone_SuperMarioBroth.exp
^C:\Users\7PC\Documents\_bitbucket\clone_SuperMarioBroth\clone_SuperMarioBroth\proj.win32\clone_SuperMarioBroth.vcxproj
C:\Users\7PC\Documents\_bitbucket\clone_SuperMarioBroth\clone_SuperMarioBroth\proj.win32\Debug.win32\clone_SuperMarioBroth.lib
C:\Users\7PC\Documents\_bitbucket\clone_SuperMarioBroth\clone_SuperMarioBroth\proj.win32\Debug.win32\clone_SuperMarioBroth.exp
^C:\Users\7PC\Documents\_bitbucket\clone_SuperMarioBroth\clone_SuperMarioBroth\proj.win32\clone_SuperMarioBroth.vcxproj
C:\Users\7PC\Documents\_bitbucket\clone_SuperMarioBroth\clone_SuperMarioBroth\proj.win32\Debug.win32\clone_SuperMarioBroth.lib
C:\Users\7PC\Documents\_bitbucket\clone_SuperMarioBroth\clone_SuperMarioBroth\proj.win32\Debug.win32\clone_SuperMarioBroth.exp
^C:\Users\7PC\Documents\_bitbucket\clone_SuperMarioBroth\clone_SuperMarioBroth\proj.win32\clone_SuperMarioBroth.vcxproj
C:\Users\7PC\Documents\_bitbucket\clone_SuperMarioBroth\clone_SuperMarioBroth\proj.win32\Debug.win32\clone_SuperMarioBroth.lib
C:\Users\7PC\Documents\_bitbucket\clone_SuperMarioBroth\clone_SuperMarioBroth\proj.win32\Debug.win32\clone_SuperMarioBroth.exp
^C:\Users\7PC\Documents\_bitbucket\clone_SuperMarioBroth\clone_SuperMarioBroth\proj.win32\clone_SuperMarioBroth.vcxproj
C:\Users\7PC\Documents\_bitbucket\clone_SuperMarioBroth\clone_SuperMarioBroth\proj.win32\Debug.win32\clone_SuperMarioBroth.lib
C:\Users\7PC\Documents\_bitbucket\clone_SuperMarioBroth\clone_SuperMarioBroth\proj.win32\Debug.win32\clone_SuperMarioBroth.exp
^C:\Users\7PC\Documents\_bitbucket\clone_SuperMarioBroth\clone_SuperMarioBroth\proj.win32\clone_SuperMarioBroth.vcxproj
C:\Users\7PC\Documents\_bitbucket\clone_SuperMarioBroth\clone_SuperMarioBroth\proj.win32\Debug.win32\clone_SuperMarioBroth.lib
C:\Users\7PC\Documents\_bitbucket\clone_SuperMarioBroth\clone_SuperMarioBroth\proj.win32\Debug.win32\clone_SuperMarioBroth.exp
^C:\Users\7PC\Documents\_bitbucket\clone_SuperMarioBroth\clone_SuperMarioBroth\proj.win32\clone_SuperMarioBroth.vcxproj
C:\Users\7PC\Documents\_bitbucket\clone_SuperMarioBroth\clone_SuperMarioBroth\proj.win32\Debug.win32\clone_SuperMarioBroth.lib
C:\Users\7PC\Documents\_bitbucket\clone_SuperMarioBroth\clone_SuperMarioBroth\proj.win32\Debug.win32\clone_SuperMarioBroth.exp
^C:\Users\7PC\Documents\_bitbucket\clone_SuperMarioBroth\clone_SuperMarioBroth\proj.win32\clone_SuperMarioBroth.vcxproj
C:\Users\7PC\Documents\_bitbucket\clone_SuperMarioBroth\clone_SuperMarioBroth\proj.win32\Debug.win32\clone_SuperMarioBroth.lib
C:\Users\7PC\Documents\_bitbucket\clone_SuperMarioBroth\clone_SuperMarioBroth\proj.win32\Debug.win32\clone_SuperMarioBroth.exp
^C:\Users\7PC\Documents\_bitbucket\clone_SuperMarioBroth\clone_SuperMarioBroth\proj.win32\clone_SuperMarioBroth.vcxproj
C:\Users\7PC\Documents\_bitbucket\clone_SuperMarioBroth\clone_SuperMarioBroth\proj.win32\Debug.win32\clone_SuperMarioBroth.lib
C:\Users\7PC\Documents\_bitbucket\clone_SuperMarioBroth\clone_SuperMarioBroth\proj.win32\Debug.win32\clone_SuperMarioBroth.exp
^C:\Users\7PC\Documents\_bitbucket\clone_SuperMarioBroth\clone_SuperMarioBroth\proj.win32\clone_SuperMarioBroth.vcxproj
C:\Users\7PC\Documents\_bitbucket\clone_SuperMarioBroth\clone_SuperMarioBroth\proj.win32\Debug.win32\clone_SuperMarioBroth.lib
C:\Users\7PC\Documents\_bitbucket\clone_SuperMarioBroth\clone_SuperMarioBroth\proj.win32\Debug.win32\clone_SuperMarioBroth.exp
^C:\Users\7PC\Documents\_bitbucket\clone_SuperMarioBroth\clone_SuperMarioBroth\proj.win32\clone_SuperMarioBroth.vcxproj
C:\Users\7PC\Documents\_bitbucket\clone_SuperMarioBroth\clone_SuperMarioBroth\proj.win32\Debug.win32\clone_SuperMarioBroth.lib
C:\Users\7PC\Documents\_bitbucket\clone_SuperMarioBroth\clone_SuperMarioBroth\proj.win32\Debug.win32\clone_SuperMarioBroth.exp
^C:\Users\7PC\Documents\_bitbucket\clone_SuperMarioBroth\clone_SuperMarioBroth\proj.win32\clone_SuperMarioBroth.vcxproj
C:\Users\7PC\Documents\_bitbucket\clone_SuperMarioBroth\clone_SuperMarioBroth\proj.win32\Debug.win32\clone_SuperMarioBroth.lib
C:\Users\7PC\Documents\_bitbucket\clone_SuperMarioBroth\clone_SuperMarioBroth\proj.win32\Debug.win32\clone_SuperMarioBroth.exp
^C:\Users\7PC\Documents\_bitbucket\clone_SuperMarioBroth\clone_SuperMarioBroth\proj.win32\clone_SuperMarioBroth.vcxproj
C:\Users\7PC\Documents\_bitbucket\clone_SuperMarioBroth\clone_SuperMarioBroth\proj.win32\Debug.win32\clone_SuperMarioBroth.lib
C:\Users\7PC\Documents\_bitbucket\clone_SuperMarioBroth\clone_SuperMarioBroth\proj.win32\Debug.win32\clone_SuperMarioBroth.exp
^C:\Users\7PC\Documents\_bitbucket\clone_SuperMarioBroth\clone_SuperMarioBroth\proj.win32\clone_SuperMarioBroth.vcxproj
C:\Users\7PC\Documents\_bitbucket\clone_SuperMarioBroth\clone_SuperMarioBroth\proj.win32\Debug.win32\clone_SuperMarioBroth.lib
C:\Users\7PC\Documents\_bitbucket\clone_SuperMarioBroth\clone_SuperMarioBroth\proj.win32\Debug.win32\clone_SuperMarioBroth.exp
^C:\Users\7PC\Documents\_bitbucket\clone_SuperMarioBroth\clone_SuperMarioBroth\proj.win32\clone_SuperMarioBroth.vcxproj
C:\Users\7PC\Documents\_bitbucket\clone_SuperMarioBroth\clone_SuperMarioBroth\proj.win32\Debug.win32\clone_SuperMarioBroth.lib
C:\Users\7PC\Documents\_bitbucket\clone_SuperMarioBroth\clone_SuperMarioBroth\proj.win32\Debug.win32\clone_SuperMarioBroth.exp
^C:\Users\7PC\Documents\_bitbucket\clone_SuperMarioBroth\clone_SuperMarioBroth\proj.win32\clone_SuperMarioBroth.vcxproj
C:\Users\7PC\Documents\_bitbucket\clone_SuperMarioBroth\clone_SuperMarioBroth\proj.win32\Debug.win32\clone_SuperMarioBroth.lib
C:\Users\7PC\Documents\_bitbucket\clone_SuperMarioBroth\clone_SuperMarioBroth\proj.win32\Debug.win32\clone_SuperMarioBroth.exp
^C:\Users\7PC\Documents\_bitbucket\clone_SuperMarioBroth\clone_SuperMarioBroth\proj.win32\clone_SuperMarioBroth.vcxproj
C:\Users\7PC\Documents\_bitbucket\clone_SuperMarioBroth\clone_SuperMarioBroth\proj.win32\Debug.win32\clone_SuperMarioBroth.lib
C:\Users\7PC\Documents\_bitbucket\clone_SuperMarioBroth\clone_SuperMarioBroth\proj.win32\Debug.win32\clone_SuperMarioBroth.exp
^C:\Users\7PC\Documents\_bitbucket\clone_SuperMarioBroth\clone_SuperMarioBroth\proj.win32\clone_SuperMarioBroth.vcxproj
C:\Users\7PC\Documents\_bitbucket\clone_SuperMarioBroth\clone_SuperMarioBroth\proj.win32\Debug.win32\clone_SuperMarioBroth.lib
C:\Users\7PC\Documents\_bitbucket\clone_SuperMarioBroth\clone_SuperMarioBroth\proj.win32\Debug.win32\clone_SuperMarioBroth.exp
^C:\Users\7PC\Documents\_bitbucket\clone_SuperMarioBroth\clone_SuperMarioBroth\proj.win32\clone_SuperMarioBroth.vcxproj
C:\Users\7PC\Documents\_bitbucket\clone_SuperMarioBroth\clone_SuperMarioBroth\proj.win32\Debug.win32\clone_SuperMarioBroth.lib
C:\Users\7PC\Documents\_bitbucket\clone_SuperMarioBroth\clone_SuperMarioBroth\proj.win32\Debug.win32\clone_SuperMarioBroth.exp
^C:\Users\7PC\Documents\_bitbucket\clone_SuperMarioBroth\clone_SuperMarioBroth\proj.win32\clone_SuperMarioBroth.vcxproj
C:\Users\7PC\Documents\_bitbucket\clone_SuperMarioBroth\clone_SuperMarioBroth\proj.win32\Debug.win32\clone_SuperMarioBroth.lib
C:\Users\7PC\Documents\_bitbucket\clone_SuperMarioBroth\clone_SuperMarioBroth\proj.win32\Debug.win32\clone_SuperMarioBroth.exp
^C:\Users\7PC\Documents\_bitbucket\clone_SuperMarioBroth\clone_SuperMarioBroth\proj.win32\clone_SuperMarioBroth.vcxproj
C:\Users\7PC\Documents\_bitbucket\clone_SuperMarioBroth\clone_SuperMarioBroth\proj.win32\Debug.win32\clone_SuperMarioBroth.lib
C:\Users\7PC\Documents\_bitbucket\clone_SuperMarioBroth\clone_SuperMarioBroth\proj.win32\Debug.win32\clone_SuperMarioBroth.exp
^C:\Users\7PC\Documents\_bitbucket\clone_SuperMarioBroth\clone_SuperMarioBroth\proj.win32\clone_SuperMarioBroth.vcxproj
C:\Users\7PC\Documents\_bitbucket\clone_SuperMarioBroth\clone_SuperMarioBroth\proj.win32\Debug.win32\clone_SuperMarioBroth.lib
C:\Users\7PC\Documents\_bitbucket\clone_SuperMarioBroth\clone_SuperMarioBroth\proj.win32\Debug.win32\clone_SuperMarioBroth.exp
^C:\Users\7PC\Documents\_bitbucket\clone_SuperMarioBroth\clone_SuperMarioBroth\proj.win32\clone_SuperMarioBroth.vcxproj
C:\Users\7PC\Documents\_bitbucket\clone_SuperMarioBroth\clone_SuperMarioBroth\proj.win32\Debug.win32\clone_SuperMarioBroth.lib
C:\Users\7PC\Documents\_bitbucket\clone_SuperMarioBroth\clone_SuperMarioBroth\proj.win32\Debug.win32\clone_SuperMarioBroth.exp
^C:\Users\7PC\Documents\_bitbucket\clone_SuperMarioBroth\clone_SuperMarioBroth\proj.win32\clone_SuperMarioBroth.vcxproj
C:\Users\7PC\Documents\_bitbucket\clone_SuperMarioBroth\clone_SuperMarioBroth\proj.win32\Debug.win32\clone_SuperMarioBroth.lib
C:\Users\7PC\Documents\_bitbucket\clone_SuperMarioBroth\clone_SuperMarioBroth\proj.win32\Debug.win32\clone_SuperMarioBroth.exp
^C:\Users\7PC\Documents\_bitbucket\clone_SuperMarioBroth\clone_SuperMarioBroth\proj.win32\clone_SuperMarioBroth.vcxproj
C:\Users\7PC\Documents\_bitbucket\clone_SuperMarioBroth\clone_SuperMarioBroth\proj.win32\Debug.win32\clone_SuperMarioBroth.lib
C:\Users\7PC\Documents\_bitbucket\clone_SuperMarioBroth\clone_SuperMarioBroth\proj.win32\Debug.win32\clone_SuperMarioBroth.exp
^C:\Users\7PC\Documents\_bitbucket\clone_SuperMarioBroth\clone_SuperMarioBroth\proj.win32\clone_SuperMarioBroth.vcxproj
C:\Users\7PC\Documents\_bitbucket\clone_SuperMarioBroth\clone_SuperMarioBroth\proj.win32\Debug.win32\clone_SuperMarioBroth.lib
C:\Users\7PC\Documents\_bitbucket\clone_SuperMarioBroth\clone_SuperMarioBroth\proj.win32\Debug.win32\clone_SuperMarioBroth.exp
^C:\Users\7PC\Documents\_bitbucket\clone_SuperMarioBroth\clone_SuperMarioBroth\proj.win32\clone_SuperMarioBroth.vcxproj
C:\Users\7PC\Documents\_bitbucket\clone_SuperMarioBroth\clone_SuperMarioBroth\proj.win32\Debug.win32\clone_SuperMarioBroth.lib
C:\Users\7PC\Documents\_bitbucket\clone_SuperMarioBroth\clone_SuperMarioBroth\proj.win32\Debug.win32\clone_SuperMarioBroth.exp
^C:\Users\7PC\Documents\_bitbucket\clone_SuperMarioBroth\clone_SuperMarioBroth\proj.win32\clone_SuperMarioBroth.vcxproj
C:\Users\7PC\Documents\_bitbucket\clone_SuperMarioBroth\clone_SuperMarioBroth\proj.win32\Debug.win32\clone_SuperMarioBroth.lib
C:\Users\7PC\Documents\_bitbucket\clone_SuperMarioBroth\clone_SuperMarioBroth\proj.win32\Debug.win32\clone_SuperMarioBroth.exp
^C:\Users\7PC\Documents\_bitbucket\clone_SuperMarioBroth\clone_SuperMarioBroth\proj.win32\clone_SuperMarioBroth.vcxproj
C:\Users\7PC\Documents\_bitbucket\clone_SuperMarioBroth\clone_SuperMarioBroth\proj.win32\Debug.win32\clone_SuperMarioBroth.lib
C:\Users\7PC\Documents\_bitbucket\clone_SuperMarioBroth\clone_SuperMarioBroth\proj.win32\Debug.win32\clone_SuperMarioBroth.exp
^C:\Users\7PC\Documents\_bitbucket\clone_SuperMarioBroth\clone_SuperMarioBroth\proj.win32\clone_SuperMarioBroth.vcxproj
C:\Users\7PC\Documents\_bitbucket\clone_SuperMarioBroth\clone_SuperMarioBroth\proj.win32\Debug.win32\clone_SuperMarioBroth.lib
C:\Users\7PC\Documents\_bitbucket\clone_SuperMarioBroth\clone_SuperMarioBroth\proj.win32\Debug.win32\clone_SuperMarioBroth.exp
^C:\Users\7PC\Documents\_bitbucket\clone_SuperMarioBroth\clone_SuperMarioBroth\proj.win32\clone_SuperMarioBroth.vcxproj
C:\Users\7PC\Documents\_bitbucket\clone_SuperMarioBroth\clone_SuperMarioBroth\proj.win32\Debug.win32\clone_SuperMarioBroth.lib
C:\Users\7PC\Documents\_bitbucket\clone_SuperMarioBroth\clone_SuperMarioBroth\proj.win32\Debug.win32\clone_SuperMarioBroth.exp
^C:\Users\7PC\Documents\_bitbucket\clone_SuperMarioBroth\clone_SuperMarioBroth\proj.win32\clone_SuperMarioBroth.vcxproj
C:\Users\7PC\Documents\_bitbucket\clone_SuperMarioBroth\clone_SuperMarioBroth\proj.win32\Debug.win32\clone_SuperMarioBroth.lib
C:\Users\7PC\Documents\_bitbucket\clone_SuperMarioBroth\clone_SuperMarioBroth\proj.win32\Debug.win32\clone_SuperMarioBroth.exp
^C:\Users\7PC\Documents\_bitbucket\clone_SuperMarioBroth\clone_SuperMarioBroth\proj.win32\clone_SuperMarioBroth.vcxproj
C:\Users\7PC\Documents\_bitbucket\clone_SuperMarioBroth\clone_SuperMarioBroth\proj.win32\Debug.win32\clone_SuperMarioBroth.lib
C:\Users\7PC\Documents\_bitbucket\clone_SuperMarioBroth\clone_SuperMarioBroth\proj.win32\Debug.win32\clone_SuperMarioBroth.exp
^C:\Users\7PC\Documents\_bitbucket\clone_SuperMarioBroth\clone_SuperMarioBroth\proj.win32\clone_SuperMarioBroth.vcxproj
C:\Users\7PC\Documents\_bitbucket\clone_SuperMarioBroth\clone_SuperMarioBroth\proj.win32\Debug.win32\clone_SuperMarioBroth.lib
C:\Users\7PC\Documents\_bitbucket\clone_SuperMarioBroth\clone_SuperMarioBroth\proj.win32\Debug.win32\clone_SuperMarioBroth.exp
^C:\Users\7PC\Documents\_bitbucket\clone_SuperMarioBroth\clone_SuperMarioBroth\proj.win32\clone_SuperMarioBroth.vcxproj
C:\Users\7PC\Documents\_bitbucket\clone_SuperMarioBroth\clone_SuperMarioBroth\proj.win32\Debug.win32\clone_SuperMarioBroth.lib
C:\Users\7PC\Documents\_bitbucket\clone_SuperMarioBroth\clone_SuperMarioBroth\proj.win32\Debug.win32\clone_SuperMarioBroth.exp
^C:\Users\7PC\Documents\_bitbucket\clone_SuperMarioBroth\clone_SuperMarioBroth\proj.win32\clone_SuperMarioBroth.vcxproj
C:\Users\7PC\Documents\_bitbucket\clone_SuperMarioBroth\clone_SuperMarioBroth\proj.win32\Debug.win32\clone_SuperMarioBroth.lib
C:\Users\7PC\Documents\_bitbucket\clone_SuperMarioBroth\clone_SuperMarioBroth\proj.win32\Debug.win32\clone_SuperMarioBroth.exp
^C:\Users\7PC\Documents\_bitbucket\clone_SuperMarioBroth\clone_SuperMarioBroth\proj.win32\clone_SuperMarioBroth.vcxproj
C:\Users\7PC\Documents\_bitbucket\clone_SuperMarioBroth\clone_SuperMarioBroth\proj.win32\Debug.win32\clone_SuperMarioBroth.lib
C:\Users\7PC\Documents\_bitbucket\clone_SuperMarioBroth\clone_SuperMarioBroth\proj.win32\Debug.win32\clone_SuperMarioBroth.exp
^C:\Users\7PC\Documents\_bitbucket\clone_SuperMarioBroth\clone_SuperMarioBroth\proj.win32\clone_SuperMarioBroth.vcxproj
C:\Users\7PC\Documents\_bitbucket\clone_SuperMarioBroth\clone_SuperMarioBroth\proj.win32\Debug.win32\clone_SuperMarioBroth.lib
C:\Users\7PC\Documents\_bitbucket\clone_SuperMarioBroth\clone_SuperMarioBroth\proj.win32\Debug.win32\clone_SuperMarioBroth.exp
^C:\Users\7PC\Documents\_bitbucket\clone_SuperMarioBroth\clone_SuperMarioBroth\proj.win32\clone_SuperMarioBroth.vcxproj
C:\Users\7PC\Documents\_bitbucket\clone_SuperMarioBroth\clone_SuperMarioBroth\proj.win32\Debug.win32\clone_SuperMarioBroth.lib
C:\Users\7PC\Documents\_bitbucket\clone_SuperMarioBroth\clone_SuperMarioBroth\proj.win32\Debug.win32\clone_SuperMarioBroth.exp
^C:\Users\7PC\Documents\_bitbucket\clone_SuperMarioBroth\clone_SuperMarioBroth\proj.win32\clone_SuperMarioBroth.vcxproj
C:\Users\7PC\Documents\_bitbucket\clone_SuperMarioBroth\clone_SuperMarioBroth\proj.win32\Debug.win32\clone_SuperMarioBroth.lib
C:\Users\7PC\Documents\_bitbucket\clone_SuperMarioBroth\clone_SuperMarioBroth\proj.win32\Debug.win32\clone_SuperMarioBroth.exp
^C:\Users\7PC\Documents\_bitbucket\clone_SuperMarioBroth\clone_SuperMarioBroth\proj.win32\clone_SuperMarioBroth.vcxproj
C:\Users\7PC\Documents\_bitbucket\clone_SuperMarioBroth\clone_SuperMarioBroth\proj.win32\Debug.win32\clone_SuperMarioBroth.lib
C:\Users\7PC\Documents\_bitbucket\clone_SuperMarioBroth\clone_SuperMarioBroth\proj.win32\Debug.win32\clone_SuperMarioBroth.exp
^C:\Users\7PC\Documents\_bitbucket\clone_SuperMarioBroth\clone_SuperMarioBroth\proj.win32\clone_SuperMarioBroth.vcxproj
C:\Users\7PC\Documents\_bitbucket\clone_SuperMarioBroth\clone_SuperMarioBroth\proj.win32\Debug.win32\clone_SuperMarioBroth.lib
C:\Users\7PC\Documents\_bitbucket\clone_SuperMarioBroth\clone_SuperMarioBroth\proj.win32\Debug.win32\clone_SuperMarioBroth.exp
^C:\Users\7PC\Documents\_bitbucket\clone_SuperMarioBroth\clone_SuperMarioBroth\proj.win32\clone_SuperMarioBroth.vcxproj
C:\Users\7PC\Documents\_bitbucket\clone_SuperMarioBroth\clone_SuperMarioBroth\proj.win32\Debug.win32\clone_SuperMarioBroth.lib
C:\Users\7PC\Documents\_bitbucket\clone_SuperMarioBroth\clone_SuperMarioBroth\proj.win32\Debug.win32\clone_SuperMarioBroth.exp
^C:\Users\7PC\Documents\_bitbucket\clone_SuperMarioBroth\clone_SuperMarioBroth\proj.win32\clone_SuperMarioBroth.vcxproj
C:\Users\7PC\Documents\_bitbucket\clone_SuperMarioBroth\clone_SuperMarioBroth\proj.win32\Debug.win32\clone_SuperMarioBroth.lib
C:\Users\7PC\Documents\_bitbucket\clone_SuperMarioBroth\clone_SuperMarioBroth\proj.win32\Debug.win32\clone_SuperMarioBroth.exp
^clone_SuperMarioBroth
C:\Users\7PC\Documents\_bitbucket\clone_SuperMarioBroth\clone_SuperMarioBroth\proj.win32\clone_SuperMarioBroth.cab
^C:\Users\7PC\Documents\_bitbucket\clone_SuperMarioBroth\proj.win32\clone_SuperMarioBroth.vcxproj
C:\Users\7PC\Documents\_bitbucket\clone_SuperMarioBroth\proj.win32\Debug.win32\clone_SuperMarioBroth.lib
C:\Users\7PC\Documents\_bitbucket\clone_SuperMarioBroth\proj.win32\Debug.win32\clone_SuperMarioBroth.exp
^clone_SuperMarioBroth
C:\Users\7PC\Documents\_bitbucket\clone_SuperMarioBroth\proj.win32\clone_SuperMarioBroth.cab
